Mini Project 4: Text Analysis – Rania Abdul Hafiz
…
Using str_functions and regular expressions, tidy the data

tidy_lyrics <- kendrick_data %>%
  unnest_tokens(word, lyrics) %>% #separate lyrics by word
  anti_join(curse_words) %>% 
  filter(!word %in% stop_words$word) %>% #filter out stop words and create n 
  group_by(word) %>% 
  mutate(n = n()) %>% 
  distinct()

tidy_lyrics

# A tibble: 15,805 × 10
# Groups:   word [6,268]
   track_name album release_date duration_ms popularity speechiness danceability
   <chr>      <chr> <date>             <dbl>      <dbl>       <dbl>        <dbl>
 1 Growing A… Over… 2010-09-14        220995         52       0.366        0.586
 2 Growing A… Over… 2010-09-14        220995         52       0.366        0.586
 3 Growing A… Over… 2010-09-14        220995         52       0.366        0.586
 4 Growing A… Over… 2010-09-14        220995         52       0.366        0.586
 5 Growing A… Over… 2010-09-14        220995         52       0.366        0.586
 6 Growing A… Over… 2010-09-14        220995         52       0.366        0.586
 7 Growing A… Over… 2010-09-14        220995         52       0.366        0.586
 8 Growing A… Over… 2010-09-14        220995         52       0.366        0.586
 9 Growing A… Over… 2010-09-14        220995         52       0.366        0.586
10 Growing A… Over… 2010-09-14        220995         52       0.366        0.586
# ℹ 15,795 more rows
# ℹ 3 more variables: tempo <dbl>, word <chr>, n <int>

tidy_lyrics <- tidy_lyrics %>% 
  mutate(across(everything(), ~ str_to_lower(.))) %>% #change all to lower case
  filter(!str_detect(word, "\\d"), #remove all words that contain numbers
         !str_detect(word, "[^a-zA-Z0-9 ]"), #remove all words that contain anything not a letter or number
         str_length(word) > 3) #keep words longer than 3 letters 
  
tidy_lyrics

# A tibble: 13,887 × 10
# Groups:   word [5,649]
   track_name album release_date duration_ms popularity speechiness danceability
   <chr>      <chr> <chr>        <chr>       <chr>      <chr>       <chr>       
 1 growing a… over… 2010-09-14   220995      52         0.366       0.586       
 2 growing a… over… 2010-09-14   220995      52         0.366       0.586       
 3 growing a… over… 2010-09-14   220995      52         0.366       0.586       
 4 growing a… over… 2010-09-14   220995      52         0.366       0.586       
 5 growing a… over… 2010-09-14   220995      52         0.366       0.586       
 6 growing a… over… 2010-09-14   220995      52         0.366       0.586       
 7 growing a… over… 2010-09-14   220995      52         0.366       0.586       
 8 growing a… over… 2010-09-14   220995      52         0.366       0.586       
 9 growing a… over… 2010-09-14   220995      52         0.366       0.586       
10 growing a… over… 2010-09-14   220995      52         0.366       0.586       
# ℹ 13,877 more rows
# ℹ 3 more variables: tempo <chr>, word <chr>, n <chr>
…
